8,8,8,8,8,8,8,8,8,8,8,8,8,8,8,8,8,8,8,8,8,8,8,8,8,8,8,8,8,8,8,8,8,8,8,8,8,8,8,8,8,8,8,8,8,8,8,8,8,8,8,8,8,8,8,8,8,8,8,8,8,8,8,8,8,8,8,8,8,8,8,8,8,8,8,8,8,8,8,8,8,8,8,8,8,8,8,8,8,8,8,8,8,8,8,8,8,8,8,8,
8,8,8,8,8,8,8,8,8,8,8,8,8,8,8,8,8,8,8,8,8,8,8,8,8,8,8,8,8,8,8,8,8,8,8,8,8,8,8,8,8,8,8,8,8,8,8,8,8,8,8,8,8,8,8,8,8,8,8,8,8,8,8,8,8,8,8,8,8,8,8,8,8,8,8,8,8,8,8,8,8,8,8,8,8,8,8,8,8,8,8,8,8,8,8,8,8,8,8,8,
8,8,8,8,8,8,8,8,8,8,8,8,8,8,8,8,8,8,8,8,8,8,8,8,8,8,8,8,8,8,8,8,8,8,8,8,8,8,8,8,8,8,8,8,8,8,8,8,8,8,8,8,8,8,8,8,8,8,8,8,8,1,1,1,1,1,1,1,1,1,1,1,1,1,1,1,1,1,1,1,1,1,1,1,1,1,1,1,1,1,1,1,1,1,1,1,1,1,8,8,
8,8,1,1,1,1,1,1,1,1,1,1,1,1,1,1,1,1,1,1,1,1,1,1,1,1,1,1,1,1,1,1,1,1,1,8,8,8,8,8,8,8,8,8,8,8,8,8,8,8,8,8,8,8,8,8,8,8,8,8,8,1,2,2,2,2,2,2,2,2,2,2,2,2,2,2,2,9,10,3,4,3,4,3,4,3,4,3,4,22,23,1,1,1,1,1,1,1,8,8,
8,8,1,2,2,2,18,19,20,21,18,19,20,21,18,19,20,21,18,19,20,21,2,2,2,2,2,2,2,2,2,2,2,2,1,8,8,8,8,8,8,8,8,8,8,8,8,8,8,8,8,8,8,8,8,8,8,8,8,8,8,1,2,2,2,2,2,2,2,2,2,2,2,2,2,2,2,9,10,11,12,11,12,11,12,11,12,11,12,22,23,1,1,1,1,1,1,1,8,8,
8,8,1,2,2,9,10,8,8,9,10,8,8,9,10,8,8,9,10,8,8,9,2,2,2,2,2,2,2,2,2,2,2,2,1,8,8,8,8,8,8,8,8,8,8,8,8,8,8,8,8,8,8,8,8,8,8,8,8,8,8,1,2,2,2,2,2,2,2,2,2,2,2,2,2,2,2,9,10,11,12,11,12,11,12,11,12,11,12,22,23,1,1,1,1,1,1,1,8,8,
8,8,1,2,27,9,10,6,7,9,10,6,7,9,10,6,7,9,10,6,7,9,2,2,2,2,2,2,2,2,2,2,2,2,1,8,8,8,8,8,8,8,8,8,8,8,8,1,1,1,1,1,1,1,1,1,1,1,1,1,1,1,2,2,2,2,2,2,2,2,2,2,2,2,2,1,1,1,1,1,1,1,1,1,1,1,1,1,1,1,1,1,1,1,1,1,1,1,8,8,
8,8,1,2,25,9,10,14,15,9,10,14,15,9,10,14,15,9,10,14,15,9,2,2,2,2,2,2,2,2,2,2,2,2,1,8,8,8,8,8,8,8,8,8,8,8,8,1,2,9,10,8,8,8,8,8,8,8,8,8,22,23,2,2,2,2,2,2,2,2,2,2,2,2,25,1,1,35,2,2,2,2,2,1,8,8,8,8,8,8,8,8,8,8,8,8,8,8,8,8,
8,8,1,1,1,1,1,1,1,1,1,1,1,1,1,1,1,1,1,1,1,1,32,2,2,2,2,2,2,2,2,2,2,2,1,8,8,8,8,8,8,8,8,8,8,8,8,1,2,9,10,8,8,8,8,8,8,8,8,8,22,23,2,2,2,2,2,2,2,2,2,2,2,2,1,1,1,43,44,2,2,43,44,1,8,8,8,8,8,8,8,8,8,8,8,8,8,8,8,8,
8,8,1,2,2,2,2,2,2,2,2,25,26,2,2,2,2,2,2,2,2,2,2,32,2,2,2,2,2,2,2,2,2,2,1,1,1,1,1,1,1,1,1,1,1,1,1,1,2,9,10,8,8,3,4,8,3,4,8,8,22,23,2,2,2,2,2,2,2,2,2,2,2,2,2,2,2,51,52,2,2,51,52,1,8,8,8,8,8,8,8,8,8,8,8,8,8,8,8,8,
8,8,1,2,2,2,2,2,2,2,2,33,34,2,2,2,2,2,2,2,2,2,2,2,32,2,2,2,2,2,2,2,2,2,9,10,3,4,8,8,3,4,22,23,2,2,2,2,2,9,10,8,8,11,12,8,11,12,8,8,22,23,2,2,2,2,2,2,2,2,27,1,1,2,2,43,44,2,2,43,44,2,2,1,8,8,8,8,8,8,8,8,8,8,8,8,8,8,8,8,
8,8,1,2,2,2,2,2,2,38,39,40,26,2,2,2,2,2,2,2,2,2,2,2,1,1,1,1,2,2,2,2,2,2,9,10,11,12,59,60,11,12,22,23,2,2,2,2,2,9,10,8,8,11,12,8,11,12,8,8,22,23,2,2,2,2,2,2,2,30,1,36,2,2,2,51,52,2,2,51,52,2,2,1,8,8,8,8,8,8,8,8,8,8,8,8,8,8,8,8,
8,8,1,33,2,43,44,2,2,46,47,48,2,2,43,44,2,2,2,2,2,2,2,2,2,2,2,2,2,2,2,2,2,2,9,10,11,12,67,68,11,12,22,23,2,2,2,2,2,9,10,8,8,11,12,1,1,1,8,8,22,23,2,2,2,2,2,2,29,2,2,2,2,43,44,2,2,43,44,2,2,2,2,1,8,8,8,8,8,8,8,8,8,8,8,8,8,8,8,8,
8,8,1,26,2,51,52,2,2,54,55,56,2,2,51,52,2,2,2,2,2,2,2,2,2,2,2,2,2,2,2,2,2,2,9,10,11,12,75,76,11,12,22,23,2,2,2,2,2,9,10,8,8,11,1,1,1,1,8,8,22,23,2,2,2,2,2,29,2,2,2,2,2,51,52,2,2,51,52,2,2,2,1,1,8,8,8,8,8,8,8,8,8,8,8,8,8,8,8,8,
8,8,1,34,28,2,2,2,2,2,2,2,2,2,2,2,2,2,2,2,2,2,2,2,2,2,2,2,2,2,2,2,2,2,9,10,11,12,1,1,11,12,22,23,2,2,2,2,2,9,10,8,8,1,1,1,1,1,8,8,22,23,2,2,2,2,29,2,2,2,2,2,2,2,2,2,2,2,2,2,2,2,1,1,8,8,8,8,8,8,8,8,8,8,8,8,8,8,8,8,
8,8,1,1,1,1,1,1,1,1,29,1,1,1,1,1,1,1,1,1,1,1,1,1,1,1,1,1,1,1,1,1,1,1,1,1,1,1,1,1,1,1,1,1,1,1,1,1,1,1,1,1,1,1,1,1,1,1,1,1,1,1,1,1,1,1,1,1,1,1,1,1,1,1,1,1,1,1,1,1,29,1,1,1,1,1,1,1,1,1,1,1,1,1,1,1,8,8,8,8,
8,8,1,2,2,2,2,2,2,29,2,2,2,2,2,2,2,2,2,2,2,2,2,2,2,17,1,8,8,8,8,8,8,8,8,8,8,8,8,8,8,8,8,8,8,8,8,8,8,8,8,8,8,8,8,8,8,8,8,8,8,8,8,8,8,8,8,8,8,1,33,26,2,2,2,2,2,2,2,29,2,2,2,18,19,20,21,18,19,20,21,18,19,20,2,1,8,8,8,8,
8,8,1,2,2,2,2,2,29,2,2,2,2,2,2,2,2,2,2,2,2,2,2,2,2,2,1,8,8,8,8,8,8,8,8,8,8,8,8,8,8,8,8,8,8,8,8,8,8,8,8,8,8,8,8,8,8,8,8,8,8,8,8,8,8,8,8,8,8,1,17,26,2,2,2,2,2,2,29,2,2,2,9,10,6,7,9,10,59,60,9,10,6,7,2,1,8,8,8,8,
8,8,1,2,2,2,2,29,2,2,2,2,2,2,2,2,43,44,2,2,43,44,2,2,2,2,1,8,8,8,8,8,8,8,8,8,8,8,8,8,8,8,8,8,8,8,8,8,8,8,8,8,8,8,8,8,8,8,8,8,8,8,8,8,8,8,8,8,8,1,2,35,2,2,2,2,2,29,2,2,2,2,9,10,14,15,9,10,67,68,9,10,14,15,2,1,8,8,8,8,
8,8,1,2,2,1,1,1,31,2,2,2,2,2,2,2,51,52,2,2,51,52,2,2,2,2,1,8,8,8,8,8,8,8,8,8,8,8,8,8,8,8,8,8,8,8,8,8,8,8,8,8,8,8,8,8,8,8,8,8,8,8,8,8,8,8,8,8,8,1,2,2,2,2,2,2,29,2,2,2,2,2,9,10,14,15,9,10,75,76,9,10,14,15,2,1,8,8,8,8,
8,8,1,2,2,2,2,2,2,31,2,2,2,2,2,2,2,2,2,2,2,2,2,2,2,2,1,8,8,8,8,8,8,8,8,8,8,8,8,8,8,8,8,8,8,8,8,8,8,8,8,8,8,8,8,8,8,8,8,8,8,8,8,8,8,8,8,8,8,1,43,44,2,2,2,29,2,2,2,2,2,2,9,10,14,15,9,10,1,1,9,10,14,15,2,1,8,8,8,8,
8,8,1,2,43,44,2,43,44,2,31,2,2,2,43,44,2,2,43,44,2,2,43,44,2,2,1,8,8,8,8,8,8,8,8,8,8,8,8,8,8,1,1,1,1,1,1,1,1,1,8,8,8,8,8,8,8,8,8,8,8,8,8,8,8,8,8,8,8,1,51,52,2,2,1,1,1,1,1,1,1,1,1,1,1,1,1,1,1,1,1,1,1,1,1,1,8,8,8,8,
8,8,1,2,51,52,2,51,52,17,26,31,2,2,51,52,2,2,51,52,2,2,51,52,2,2,1,8,8,8,8,8,8,8,8,8,8,8,8,8,8,1,2,2,2,2,34,35,36,1,8,8,8,8,8,8,8,8,8,8,8,8,8,8,8,8,8,8,8,1,1,2,2,2,1,8,8,8,8,8,8,8,8,8,8,8,8,8,8,8,8,8,8,8,8,8,8,8,8,8,
8,8,1,2,2,2,2,2,2,33,34,2,31,2,2,2,2,2,2,2,2,2,2,2,2,2,1,8,8,8,8,1,1,1,1,1,1,1,1,1,1,1,2,2,38,39,40,34,34,1,1,1,1,1,1,1,1,1,1,8,8,8,8,8,8,8,8,8,8,1,2,2,43,44,1,8,8,8,8,8,8,8,8,8,8,8,8,8,8,8,8,8,8,8,8,8,8,8,8,8,
8,8,1,1,1,1,1,1,1,1,1,1,1,1,1,1,1,1,1,32,2,2,2,2,2,2,1,8,8,8,8,1,1,1,1,1,1,1,1,1,1,1,2,2,46,47,48,2,33,1,1,1,1,1,1,1,1,1,1,8,8,8,8,8,8,8,8,8,8,1,2,2,51,52,1,8,8,8,8,8,8,8,8,8,8,8,8,8,8,8,8,8,8,8,8,8,8,8,8,8,
8,8,8,8,8,8,8,8,8,1,37,37,37,37,37,37,37,37,37,2,32,2,2,2,2,2,1,8,8,8,8,1,1,1,1,1,1,1,1,1,2,2,2,2,54,55,56,2,2,2,2,1,1,1,1,1,1,1,1,8,8,8,8,8,8,8,8,8,8,1,2,2,2,1,1,8,8,8,8,8,8,8,8,8,8,8,8,8,8,8,8,8,8,8,8,8,8,8,8,8,
8,8,8,8,8,8,8,8,8,1,9,10,3,4,22,23,2,2,2,2,2,32,2,2,2,2,1,8,8,8,8,1,1,1,1,1,1,1,2,2,2,2,2,2,2,2,2,2,2,2,2,2,17,1,1,1,1,1,1,8,8,8,8,8,8,8,8,8,8,1,43,44,2,17,1,8,8,8,8,8,8,8,8,8,8,8,8,8,8,8,8,8,8,8,8,8,8,8,8,8,
8,8,8,8,8,8,8,8,8,1,9,10,11,12,22,23,2,2,2,2,2,2,32,2,2,2,1,8,8,8,8,1,1,1,1,1,2,2,2,2,36,26,28,2,2,2,2,2,2,2,2,2,2,2,9,1,1,1,1,1,1,1,1,1,1,1,1,1,1,1,51,52,2,2,1,8,8,8,8,8,8,8,8,8,8,8,8,8,8,8,8,8,8,8,8,8,8,8,8,8,
8,8,8,8,8,8,8,8,8,1,9,10,11,12,22,23,2,2,2,2,2,2,2,32,2,2,1,1,1,1,1,1,1,1,2,2,2,2,2,2,17,35,1,1,1,1,1,1,1,2,2,2,2,2,9,23,17,1,1,1,1,1,1,1,1,1,1,1,1,1,1,2,2,2,1,8,8,8,8,8,8,8,8,8,8,8,8,8,8,8,8,8,8,8,8,8,8,8,8,8,
8,8,8,8,8,8,8,8,8,1,9,10,11,12,22,23,2,2,2,2,2,2,2,2,32,2,2,2,2,2,2,2,2,2,2,2,2,2,2,2,1,1,1,1,1,1,1,1,1,1,1,2,2,2,9,18,19,20,21,18,19,20,21,18,19,20,21,18,19,20,21,2,2,2,1,8,8,8,8,8,8,8,8,8,8,8,8,8,8,8,8,8,8,8,8,8,8,8,8,8,
8,8,8,8,8,8,8,8,8,1,9,10,11,12,22,23,2,2,2,2,2,2,2,2,2,32,2,2,2,2,2,2,2,2,2,2,2,2,1,1,1,1,1,1,1,1,1,1,1,1,1,1,1,2,9,10,6,7,9,10,6,7,9,10,6,7,9,10,6,7,2,2,2,2,1,8,8,8,8,8,8,8,8,8,8,8,8,8,8,8,8,8,8,8,8,8,8,8,8,8,
8,8,8,8,8,8,8,8,8,1,1,1,1,1,1,1,2,2,2,2,2,2,2,2,2,2,32,2,2,2,2,2,2,2,2,2,1,1,1,1,1,1,1,1,1,1,1,1,1,1,1,1,1,1,1,10,14,15,9,10,14,15,9,10,14,15,9,10,14,15,2,2,2,2,1,8,8,8,8,8,8,8,8,8,8,8,8,8,8,8,8,8,8,8,8,8,8,8,8,8,
8,8,8,8,8,8,8,8,8,1,1,2,2,2,2,2,2,2,29,1,1,1,1,1,1,1,1,1,1,1,1,1,1,1,1,1,1,1,1,1,1,1,1,1,1,1,1,1,1,1,1,1,1,1,1,1,1,1,1,1,1,1,1,1,1,1,1,1,1,1,1,1,1,1,1,1,1,1,1,1,1,1,1,1,1,8,8,8,8,8,8,8,8,8,8,8,8,8,8,8,
8,8,8,8,8,8,8,8,8,1,1,2,2,2,2,2,2,29,2,2,2,2,2,2,2,2,18,19,20,21,18,19,20,21,18,19,20,21,18,19,20,21,18,19,20,21,2,2,2,2,2,2,2,2,2,2,2,2,2,2,2,2,2,2,2,2,2,2,2,2,2,2,2,2,2,2,2,2,2,2,2,2,2,2,1,8,8,8,8,8,8,8,8,8,8,8,8,8,8,8,
8,8,8,8,8,8,8,8,8,1,1,2,28,2,2,2,29,2,2,2,2,2,2,2,2,9,10,8,8,9,10,8,8,9,10,8,8,9,10,8,8,9,10,8,8,22,23,2,2,2,2,2,2,2,2,2,2,2,2,2,2,2,2,2,2,2,2,43,44,2,2,43,44,2,2,2,2,2,2,2,2,2,2,2,1,8,8,8,8,8,8,8,8,8,8,8,8,8,8,8,
8,8,8,8,8,8,8,8,8,1,1,34,36,2,2,29,2,2,2,2,2,2,2,2,2,9,10,6,7,9,10,6,7,9,10,6,7,9,10,6,7,9,10,6,7,22,23,2,2,2,2,2,2,2,2,2,2,2,2,2,2,2,2,2,2,2,2,51,52,2,2,51,52,2,2,2,2,2,2,2,2,2,2,2,1,8,8,8,8,8,8,8,8,8,8,8,8,8,8,8,
8,8,8,8,8,8,8,8,8,1,1,25,26,1,1,2,2,2,2,2,2,2,2,2,2,9,10,14,15,9,10,14,15,9,10,14,15,9,10,14,15,9,10,14,15,22,23,2,2,2,2,2,2,2,2,2,2,2,2,2,2,2,2,2,2,2,2,2,2,2,2,2,2,2,2,2,2,2,2,2,2,2,2,2,1,8,8,8,8,8,8,8,8,8,8,8,8,8,8,8,
8,8,8,8,8,8,8,8,8,1,1,33,34,1,1,1,1,1,1,1,1,1,1,1,1,1,32,2,37,1,1,37,37,37,37,37,37,37,1,37,37,37,37,37,37,37,29,1,1,1,1,1,1,1,2,2,2,2,2,2,2,2,2,2,2,2,1,1,1,1,1,1,1,1,2,2,2,2,2,2,2,2,2,2,1,8,8,8,8,8,8,8,8,8,8,8,8,8,8,8,
8,8,8,8,8,8,8,8,8,1,1,1,1,8,8,8,8,8,8,8,8,8,8,8,8,1,2,32,2,2,2,2,2,2,2,2,1,1,2,2,2,2,2,2,2,29,2,1,1,1,1,1,1,1,2,2,2,2,2,2,2,2,2,2,2,2,9,10,8,6,7,8,22,23,2,2,2,2,2,2,2,2,2,2,1,8,8,8,8,8,8,8,8,8,8,8,8,8,8,8,
8,8,8,8,8,8,8,8,8,8,8,8,8,8,8,8,8,8,8,8,8,8,8,8,8,1,2,2,32,2,2,2,2,1,1,2,2,2,2,2,2,2,1,1,1,2,2,1,1,1,1,1,1,1,1,1,2,2,2,1,1,2,2,1,1,2,9,10,8,14,15,8,22,23,2,2,2,2,2,2,2,2,2,2,1,8,8,8,8,8,8,8,8,8,8,8,8,8,8,8,
8,8,8,8,8,8,8,8,8,8,8,8,8,8,8,8,8,8,8,8,8,8,8,8,8,1,2,2,2,32,2,2,2,2,2,2,2,2,2,1,1,2,2,2,2,2,2,1,1,1,1,1,1,1,1,1,2,2,2,2,2,2,2,2,2,2,9,10,8,14,15,8,22,23,2,2,2,2,2,2,2,2,2,2,1,8,8,8,8,8,8,8,8,8,8,8,8,8,8,8,
8,8,8,8,8,8,8,8,8,8,8,8,8,8,8,8,8,8,8,8,8,8,8,8,8,1,2,2,2,2,32,2,2,2,2,2,2,2,2,2,2,2,2,2,2,2,2,1,1,1,1,1,1,1,1,1,1,1,2,2,2,2,2,2,2,2,9,10,8,14,15,8,22,23,2,2,2,2,2,2,2,2,2,2,1,8,8,8,8,8,8,8,8,8,8,8,8,8,8,8,
8,8,8,8,8,8,8,8,8,8,8,8,8,8,8,8,8,8,8,8,8,8,8,8,8,1,2,43,44,2,2,32,2,2,2,27,28,2,2,2,2,2,2,43,44,2,2,1,1,1,1,1,1,1,1,1,1,1,2,2,2,2,2,2,2,2,9,10,8,14,15,8,22,23,2,2,2,2,2,2,2,2,2,2,1,8,8,8,8,8,8,8,8,8,8,8,8,8,8,8,
8,8,8,8,8,8,8,8,8,8,8,8,8,8,8,8,8,8,8,8,8,8,8,8,8,1,2,51,52,2,2,2,32,2,2,25,26,2,2,2,2,2,2,51,52,2,2,1,1,1,1,1,1,1,1,1,1,1,1,1,1,1,1,1,1,1,1,1,1,1,1,1,1,1,1,32,2,2,2,2,2,2,2,2,1,8,8,8,8,8,8,8,8,8,8,8,8,8,8,8,
8,8,8,8,8,8,8,8,8,8,8,8,8,8,8,8,8,8,8,8,8,8,8,8,8,1,2,2,2,2,2,2,2,32,33,34,35,36,2,2,2,2,2,2,2,2,2,1,1,1,1,1,1,1,1,1,1,1,1,2,2,2,9,10,3,4,8,8,3,4,22,23,2,17,1,2,32,2,2,2,2,2,27,36,1,8,8,8,8,8,8,8,8,8,8,8,8,8,8,8,
8,8,8,8,8,8,8,8,8,8,8,8,8,8,8,8,8,8,8,8,8,8,8,8,8,1,1,1,1,1,1,1,1,1,1,1,1,1,1,1,1,1,1,1,1,2,2,1,1,2,2,2,2,2,2,2,2,2,2,2,2,2,9,10,11,12,59,60,11,12,22,23,2,2,1,2,2,32,2,2,2,2,25,34,1,8,8,8,8,8,8,8,8,8,8,8,8,8,8,8,
8,8,8,8,8,8,8,8,8,8,8,8,8,8,8,8,8,8,8,8,8,8,8,8,8,8,8,8,8,8,8,8,8,8,8,8,8,8,8,8,8,8,8,8,1,2,2,2,2,2,2,2,2,2,2,2,2,2,2,2,2,2,9,10,11,12,67,68,11,12,22,23,2,2,1,2,2,2,32,2,2,2,17,35,1,8,8,8,8,8,8,8,8,8,8,8,8,8,8,8,
8,8,8,8,8,8,8,8,8,8,8,8,8,8,8,8,8,8,8,8,8,8,8,8,8,8,8,8,8,8,8,8,8,8,8,8,8,8,8,8,8,8,8,8,1,1,2,2,2,2,2,2,2,2,2,2,2,2,2,2,2,2,9,10,11,12,75,76,11,12,22,23,1,1,1,2,2,2,1,1,1,1,1,1,1,8,8,8,8,8,8,8,8,8,8,8,8,8,8,8,
8,8,8,8,8,8,8,8,8,8,8,8,8,8,8,8,8,8,8,8,8,8,8,8,8,8,8,8,8,8,8,8,8,8,8,8,8,8,8,8,8,8,8,8,1,1,2,2,2,2,2,2,1,1,1,35,2,1,2,2,2,2,9,10,11,12,1,1,11,12,22,23,1,1,1,2,2,2,2,2,2,2,2,2,1,8,8,8,8,8,8,8,8,8,8,8,8,8,8,8,
8,8,8,8,8,8,8,8,8,8,8,8,8,8,8,8,8,8,8,8,8,8,8,8,8,8,8,8,8,8,8,8,8,8,8,8,8,8,8,8,8,8,8,8,1,1,1,1,1,1,1,1,1,1,1,1,1,1,1,2,2,2,9,1,1,1,1,1,1,1,1,1,1,1,1,1,1,2,2,2,2,2,2,2,1,8,8,8,8,8,8,8,8,8,8,8,8,8,8,8,
8,8,8,8,8,8,8,8,8,8,8,8,8,8,8,8,8,8,8,8,8,8,8,8,8,8,8,8,8,8,8,8,8,8,8,8,8,8,8,8,8,8,8,8,8,8,8,8,8,1,9,10,3,4,22,23,2,2,1,1,1,35,1,1,1,1,1,1,1,1,1,1,1,1,1,1,1,2,2,2,2,2,2,2,1,8,8,8,8,8,8,8,8,8,8,8,8,8,8,8,
8,8,8,8,8,8,8,8,8,8,8,8,8,8,8,8,8,8,8,8,8,8,8,8,8,8,8,8,8,8,8,8,8,8,8,8,8,8,8,8,8,8,8,8,8,8,8,8,8,1,9,10,11,12,22,23,2,2,1,1,1,17,1,1,1,1,1,1,1,1,1,1,1,1,1,1,1,1,1,32,2,2,2,2,1,8,8,8,8,8,8,8,8,8,8,8,8,8,8,8,
8,8,8,8,8,8,8,8,8,8,8,8,8,8,8,8,8,8,8,8,8,8,8,8,8,8,8,8,8,8,8,8,8,8,8,8,8,8,8,8,8,8,8,8,8,8,8,8,8,1,9,10,11,12,22,23,2,2,2,2,2,2,2,1,1,1,1,1,1,1,1,1,1,1,1,1,1,1,1,2,32,2,2,2,1,8,8,8,8,8,8,8,8,8,8,8,8,8,8,8,
8,8,8,8,8,8,8,8,8,8,8,8,8,8,8,8,8,8,8,8,8,8,8,8,8,8,8,8,8,8,8,8,8,8,8,8,8,8,8,8,8,8,8,8,8,8,8,8,8,1,9,10,11,12,22,23,2,2,2,2,2,2,2,2,2,2,2,2,2,2,2,2,2,2,2,2,2,2,2,2,2,32,2,2,1,8,8,8,8,8,8,8,8,8,8,8,8,8,8,8,
8,8,8,8,8,8,8,8,8,8,8,8,8,8,8,8,8,8,8,8,8,8,8,8,8,8,8,8,8,8,8,8,8,8,8,8,8,8,8,8,8,8,8,8,8,8,8,8,8,1,9,10,11,12,22,23,2,2,2,2,2,2,2,2,2,2,2,2,2,2,2,2,2,2,2,2,2,2,2,2,2,2,32,2,1,8,8,8,8,8,8,8,8,8,8,8,8,8,8,8,
8,8,8,8,8,8,8,8,8,8,8,8,8,8,8,8,8,8,8,8,8,8,8,8,8,8,8,8,8,8,8,8,8,8,8,8,8,8,8,8,8,8,8,8,8,8,8,8,8,1,9,10,11,12,22,23,2,2,2,2,2,2,2,2,2,2,2,2,2,2,2,2,2,2,2,2,2,2,2,2,2,2,2,32,1,8,8,8,8,8,8,8,8,8,8,8,8,8,8,8,
8,8,8,8,8,8,8,8,8,8,8,8,8,8,8,8,8,8,8,8,8,8,8,8,8,8,8,8,8,8,8,8,8,8,8,8,8,8,8,8,8,8,8,8,8,8,8,8,8,1,1,1,1,1,1,1,2,27,28,1,1,1,1,1,1,1,1,1,1,1,1,1,1,1,1,1,1,1,1,1,1,1,1,1,1,8,8,8,8,8,8,8,8,8,8,8,8,8,8,8,
8,8,8,8,8,8,8,8,8,8,8,8,8,8,8,8,8,8,8,8,8,8,8,8,8,8,8,8,8,8,8,8,8,8,8,8,8,8,8,8,8,8,8,8,8,8,8,8,8,8,8,8,8,8,8,1,1,35,36,1,8,8,8,8,8,8,8,8,8,8,8,8,8,8,8,8,8,8,8,8,8,8,8,8,8,8,8,8,8,8,8,8,8,8,8,8,8,8,8,8,
8,8,8,8,8,8,8,8,8,8,8,8,8,8,8,8,8,8,8,8,8,8,8,8,8,8,8,8,8,8,8,8,8,8,8,8,8,8,8,8,8,8,8,8,8,8,8,8,8,8,8,8,8,8,8,1,33,34,35,1,8,8,8,8,8,8,8,8,8,8,8,8,8,8,8,8,8,8,8,8,8,8,8,8,8,8,8,8,8,8,8,8,8,8,8,8,8,8,8,8,
8,8,8,8,8,8,8,8,8,8,8,8,8,8,8,8,8,8,8,8,8,8,8,8,8,8,8,8,8,8,8,8,8,8,8,8,8,8,8,8,8,8,8,8,8,8,8,8,8,8,8,8,8,8,8,1,17,26,1,1,8,8,8,8,8,8,8,8,8,8,8,8,8,8,8,8,8,8,8,8,8,8,8,8,8,8,8,8,8,8,8,8,8,8,8,8,8,8,8,8,
8,8,8,8,8,8,8,8,8,8,8,8,8,8,8,8,8,8,8,8,8,8,8,8,8,8,8,8,8,8,8,8,8,8,8,8,8,8,8,8,8,8,8,8,8,8,8,8,8,8,8,8,8,8,8,1,34,36,17,1,8,8,8,8,8,8,8,8,8,8,8,8,8,8,8,8,8,8,8,8,8,8,8,8,8,8,8,8,8,8,8,8,8,8,8,8,8,8,8,8,
8,8,8,8,8,8,8,8,8,8,8,8,8,8,8,8,8,8,8,8,8,8,8,8,8,8,8,8,8,8,8,8,8,8,8,8,8,8,8,8,8,8,8,8,8,8,8,8,8,8,8,8,8,8,8,1,1,33,27,1,8,8,8,8,8,8,8,8,8,8,8,8,8,8,8,8,8,8,8,8,8,8,8,8,8,8,8,8,8,8,8,8,8,8,8,8,8,8,8,8,
8,8,8,8,8,8,8,8,8,8,8,8,8,8,8,8,8,8,8,8,8,8,8,8,8,8,8,8,8,8,8,8,8,8,8,8,8,8,8,8,8,8,8,8,8,8,8,8,8,8,8,8,8,8,8,1,25,34,26,1,8,8,8,8,8,8,8,8,8,8,8,8,8,8,8,8,8,8,8,8,8,8,8,8,8,8,8,8,8,8,8,8,8,8,8,8,8,8,8,8,
8,8,8,8,8,8,8,8,8,8,8,8,8,8,8,8,8,8,8,8,8,8,8,8,8,8,8,8,8,8,8,8,8,8,8,8,8,8,8,8,8,8,8,8,8,8,8,8,8,8,8,8,8,8,8,1,26,33,1,1,1,1,1,1,1,1,1,1,1,1,1,1,1,1,1,8,8,8,8,8,8,8,8,8,8,8,8,8,8,8,8,8,8,8,8,8,8,8,8,8,
8,8,8,8,8,8,8,8,8,8,8,8,8,8,8,8,8,8,8,8,8,8,8,8,8,8,8,8,8,8,8,8,8,8,8,8,8,8,8,8,8,8,8,8,8,8,8,8,8,8,8,8,8,8,8,1,33,2,17,2,2,2,2,2,2,2,2,2,2,2,2,2,2,2,1,8,8,8,8,8,8,8,8,8,8,8,8,8,8,8,8,8,8,8,8,8,8,8,8,8,
8,8,8,8,8,8,8,8,8,8,8,8,8,8,8,8,8,8,8,8,8,8,8,8,8,8,8,8,8,8,8,8,8,8,8,8,8,8,8,8,8,8,8,8,8,8,8,8,8,8,8,8,8,8,8,1,1,2,2,2,2,2,2,2,2,2,2,2,2,2,2,2,2,2,1,8,8,8,8,8,8,8,8,8,8,8,8,8,8,8,8,8,8,8,8,8,8,8,8,8,
8,8,8,8,8,8,8,8,8,8,8,8,8,8,8,8,8,8,8,8,8,8,8,8,8,8,8,8,8,8,8,8,8,8,8,8,8,8,8,8,8,8,8,8,8,8,8,8,8,8,8,8,8,8,8,1,1,1,2,2,2,2,2,28,2,2,2,2,2,2,2,2,2,2,1,1,1,1,1,1,1,1,1,1,1,1,1,1,1,1,1,1,1,1,1,1,1,1,8,8,
8,8,8,8,8,8,8,8,8,8,8,8,8,8,8,8,8,8,8,8,8,8,8,8,8,8,8,8,1,1,1,1,1,1,1,1,1,1,1,1,1,1,1,1,1,1,1,1,1,1,1,1,1,1,1,1,1,1,1,1,1,1,25,26,28,2,2,2,2,2,2,2,2,2,2,2,2,2,2,2,2,2,2,2,2,2,2,2,2,2,2,2,2,2,2,2,1,1,8,8,
8,8,8,8,8,8,8,8,8,8,8,8,8,8,8,8,8,8,8,8,8,8,8,8,8,8,8,8,1,1,2,2,2,2,2,2,2,2,2,2,2,2,2,2,2,2,2,2,2,2,2,2,2,2,2,2,2,9,10,8,8,1,26,35,2,2,2,2,2,2,2,2,2,2,2,2,2,2,2,2,2,2,2,2,2,2,2,2,2,2,2,2,2,2,2,2,1,1,8,8,
8,8,8,8,8,8,8,8,8,8,8,8,8,8,8,8,8,8,8,8,8,8,8,8,8,8,8,8,1,1,1,2,2,2,2,2,2,2,2,2,2,2,2,2,2,43,44,2,43,44,2,2,2,2,2,2,2,9,10,8,8,1,1,1,1,32,2,2,2,2,2,2,2,2,2,18,19,20,21,18,19,20,21,18,19,20,21,18,19,20,21,18,19,20,21,2,1,1,8,8,
8,8,8,8,8,8,8,8,8,8,8,8,8,8,8,8,8,8,8,8,8,8,8,8,8,8,8,8,1,1,1,2,2,2,2,2,2,2,2,2,2,2,2,2,2,51,52,2,51,52,2,2,2,2,2,2,2,9,10,8,8,8,8,22,23,2,32,2,2,2,2,2,2,2,9,10,8,8,9,10,8,8,9,10,8,8,9,10,8,8,9,10,8,8,22,23,1,1,8,8,
8,8,8,8,8,8,8,8,8,8,8,8,8,8,8,8,8,8,8,8,8,8,8,8,8,8,8,8,1,1,1,1,1,1,1,1,32,2,2,2,2,2,2,2,2,2,2,2,2,2,2,2,2,2,2,2,2,9,10,8,5,16,8,22,23,2,2,32,2,2,2,2,2,2,9,10,6,7,9,10,6,7,9,10,6,7,9,10,6,7,9,10,6,7,22,23,1,1,8,8,
8,8,8,8,8,8,8,8,8,8,8,8,8,8,8,8,8,8,8,8,8,8,8,8,8,8,8,8,1,1,2,2,2,2,2,2,2,32,2,2,2,2,2,2,27,1,1,1,1,1,2,2,2,2,2,2,2,9,10,8,13,24,8,22,23,2,2,2,32,2,2,2,2,2,9,10,14,15,9,10,14,15,9,10,14,15,9,10,14,15,9,10,14,15,22,23,1,1,8,8,
8,8,8,8,8,8,8,8,8,8,8,8,8,8,8,8,8,8,8,8,8,8,8,8,8,8,8,8,1,1,2,2,2,2,2,2,2,2,32,2,2,2,2,27,1,2,2,2,2,2,2,1,28,2,2,2,2,9,10,5,24,24,16,22,23,2,2,2,1,1,1,1,1,1,1,1,1,1,1,1,29,1,1,1,1,1,1,1,1,1,1,1,1,1,1,1,1,1,8,8,
8,8,8,8,8,8,8,8,8,8,8,8,8,8,8,8,8,8,8,8,8,8,8,8,8,8,8,8,1,1,2,2,2,2,2,2,2,2,1,1,2,2,1,1,35,2,2,2,2,2,2,2,1,1,2,2,2,9,10,13,24,24,24,22,23,2,2,2,2,2,2,2,2,2,2,2,2,2,2,30,2,2,2,9,10,8,8,22,23,2,2,2,2,2,2,2,2,1,8,8,
8,8,8,8,8,8,8,8,8,8,8,8,8,8,8,8,8,8,8,8,8,8,8,8,8,8,8,8,1,1,2,18,19,20,21,18,19,20,21,18,19,20,21,18,19,20,21,2,2,2,2,2,2,2,2,2,29,1,1,1,1,1,1,1,1,1,2,2,2,2,2,2,2,2,2,2,2,2,30,2,2,2,2,9,10,3,4,22,23,2,43,44,2,2,2,2,2,1,8,8,
8,8,8,8,8,8,8,8,8,8,8,8,8,8,8,8,8,8,8,8,8,8,8,8,8,8,8,8,1,1,9,10,3,4,9,10,3,4,9,10,3,4,9,10,3,4,2,2,2,2,2,2,2,2,2,29,2,2,2,2,2,2,2,2,2,2,2,2,2,2,2,2,2,2,2,2,2,30,2,38,39,40,2,9,10,11,12,22,23,2,51,52,2,2,2,2,2,1,8,8,
8,8,8,8,8,8,8,8,8,8,8,8,8,8,8,8,8,8,8,8,8,8,8,8,8,8,8,8,1,1,9,10,11,12,9,10,11,12,9,10,11,12,9,10,11,12,2,2,2,2,2,2,2,2,29,2,2,2,2,2,2,2,2,2,2,2,2,2,2,2,2,2,2,2,2,2,30,2,2,46,47,48,2,9,10,11,12,22,23,2,2,2,2,43,44,2,2,1,8,8,
8,8,8,8,8,8,8,8,8,8,8,8,8,8,8,8,8,8,8,8,8,8,8,8,8,8,8,8,1,1,9,10,11,12,9,10,11,12,9,10,11,12,9,10,11,12,2,2,2,2,2,2,2,29,2,2,2,2,2,2,2,2,2,2,2,2,2,2,2,2,2,2,2,2,2,30,2,2,2,54,55,56,2,9,10,11,12,22,23,2,43,44,2,51,52,2,2,1,8,8,
8,8,8,8,8,8,8,8,8,8,8,8,8,8,8,8,8,8,8,8,8,8,8,8,8,8,8,8,1,1,9,10,11,12,9,10,11,12,9,10,11,12,9,10,11,12,2,2,43,44,2,2,29,2,2,43,44,2,2,2,2,2,2,2,2,2,2,2,43,44,2,2,2,2,30,2,2,2,2,2,2,2,2,9,10,11,12,22,23,2,51,52,2,2,2,2,2,1,8,8,
8,8,8,8,8,8,8,8,8,8,8,8,8,8,8,8,8,8,8,8,8,8,8,8,8,8,8,8,1,1,9,10,11,12,9,10,11,12,9,10,11,12,9,10,11,12,2,2,51,52,2,29,2,2,2,51,52,2,2,2,2,2,2,2,2,2,2,2,51,52,2,2,2,1,1,1,1,1,1,1,1,1,1,1,1,1,1,1,1,2,2,2,2,43,44,2,2,1,8,8,
8,8,8,8,8,8,8,8,8,8,8,8,8,8,8,8,8,8,8,8,8,8,8,8,8,8,8,8,1,1,9,10,11,12,9,10,11,12,9,10,11,12,9,10,11,12,2,2,2,2,29,2,2,2,2,2,2,2,2,2,2,2,2,2,2,2,2,2,2,2,2,2,1,1,1,1,1,1,1,1,1,1,1,1,1,1,1,1,1,2,1,1,2,51,52,2,2,1,8,8,
8,8,8,8,8,8,8,8,8,8,8,8,8,8,8,8,8,8,8,8,8,8,8,8,8,8,8,8,1,1,1,1,1,1,1,1,1,1,1,1,1,1,1,1,1,1,1,1,1,1,1,1,1,1,1,1,1,1,2,2,2,2,2,29,1,1,1,1,1,1,1,1,1,1,1,1,1,1,1,1,1,1,1,1,1,1,1,1,1,2,2,2,2,2,2,2,2,1,8,8,
8,8,8,8,8,8,8,8,8,8,8,8,8,8,8,8,8,8,8,8,8,8,8,8,8,8,8,8,1,1,1,1,1,1,1,1,1,1,1,1,1,1,1,1,1,1,1,1,1,1,1,1,1,1,1,1,1,1,2,2,2,2,29,2,2,2,43,44,2,2,43,44,2,1,1,1,1,1,1,1,1,1,1,1,1,1,1,1,1,2,2,2,2,1,1,2,2,1,8,8,
8,8,8,8,8,8,8,8,8,8,8,8,8,8,8,8,8,8,8,8,8,8,8,8,8,8,8,8,1,1,37,37,37,37,37,37,37,37,37,37,37,37,37,37,37,37,37,37,37,37,37,37,37,37,37,1,1,1,2,2,2,29,2,2,2,2,51,52,2,2,51,52,2,1,1,1,1,1,1,1,1,1,1,1,1,1,1,1,1,2,2,2,2,2,2,2,2,1,8,8,
8,8,8,8,8,8,8,8,8,8,8,8,8,8,8,8,8,8,8,8,8,8,8,8,8,8,8,8,1,1,2,2,2,9,10,8,8,8,8,8,8,8,8,8,8,8,8,8,8,8,22,23,2,2,2,1,1,1,2,2,29,2,2,2,2,2,2,2,2,2,2,2,2,1,1,1,1,1,1,1,1,1,1,1,1,1,1,1,1,2,2,2,2,2,2,29,1,1,8,8,
8,8,8,8,8,8,8,8,8,8,8,8,8,8,8,8,8,8,8,8,8,8,8,8,8,8,8,8,1,1,2,2,2,9,10,8,8,8,8,8,8,8,8,8,8,8,8,8,8,8,22,23,2,2,2,1,1,1,2,29,2,2,2,2,43,44,2,2,43,44,2,2,2,1,1,1,1,1,1,1,1,1,1,1,1,1,1,1,1,2,2,2,2,2,29,2,2,1,8,8,
8,8,8,8,8,8,8,8,8,8,8,8,8,8,8,8,8,8,8,8,8,8,8,8,8,8,8,8,1,1,2,2,2,9,10,8,8,8,8,8,8,8,8,8,8,8,8,8,8,8,22,23,2,2,2,1,1,1,1,1,2,2,2,2,51,52,2,2,51,52,2,2,2,1,1,1,1,1,1,1,1,1,1,1,1,1,1,1,1,2,2,2,2,29,2,2,2,1,8,8,
8,8,8,8,8,8,8,8,8,8,8,8,8,8,8,8,8,8,8,8,8,8,8,8,8,8,8,8,1,1,2,2,2,9,10,8,8,8,8,8,8,8,8,8,8,8,8,8,8,8,22,23,2,2,2,1,1,1,1,1,27,26,2,2,2,2,2,2,2,2,2,2,2,1,1,1,1,1,1,1,1,1,1,1,1,1,1,1,1,2,2,2,29,2,2,2,2,1,8,8,
8,8,8,8,8,8,8,8,8,8,8,8,8,8,8,8,8,8,8,8,8,8,8,8,8,8,8,8,1,1,2,2,2,9,10,8,8,8,8,8,8,5,13,16,8,8,8,8,8,8,22,23,2,2,2,1,1,1,1,1,1,17,36,28,2,2,43,44,2,2,43,44,2,1,1,1,1,1,1,1,1,1,1,1,1,1,1,1,1,2,2,29,2,2,2,2,2,1,8,8,
8,8,8,8,8,8,8,8,8,8,8,8,8,8,8,8,8,8,8,8,8,8,8,8,8,8,8,8,1,1,2,2,2,9,10,8,8,8,8,8,5,13,13,13,16,8,8,8,8,8,22,23,2,2,2,1,1,1,1,1,1,1,1,35,2,2,51,52,2,2,51,52,2,1,1,1,1,1,1,1,1,1,1,1,1,1,1,1,1,2,29,2,2,2,43,44,2,1,8,8,
8,8,8,8,8,8,8,8,8,8,8,8,8,8,8,8,8,8,8,8,8,8,8,8,8,8,8,8,1,1,2,2,2,9,10,8,8,8,8,5,13,13,13,13,13,16,8,8,8,8,22,23,2,2,2,1,1,1,1,1,1,1,1,26,2,2,2,2,2,2,2,2,2,1,1,1,1,1,1,1,1,1,1,1,1,1,1,1,1,1,1,2,2,2,51,52,2,1,8,8,
8,8,8,8,8,8,8,8,8,8,8,8,8,8,8,8,8,8,8,8,8,8,8,8,8,8,8,8,1,1,2,2,2,9,10,3,4,8,8,13,13,13,13,13,13,13,8,8,3,4,22,23,2,2,2,1,1,1,1,1,1,1,1,1,1,32,2,2,2,2,2,2,2,1,1,1,1,1,1,1,35,28,2,2,2,2,2,2,2,2,2,2,2,2,2,2,2,1,8,8,
8,8,8,8,8,8,8,8,8,8,8,8,8,8,8,8,8,8,8,8,8,8,8,8,8,8,8,8,1,1,2,2,2,9,10,11,12,8,8,13,13,13,13,13,13,13,8,8,11,12,22,23,2,2,17,1,1,1,1,1,1,1,1,1,1,2,32,2,2,2,2,2,2,1,1,1,1,1,1,1,25,26,33,38,39,40,2,2,2,2,2,29,1,1,1,1,1,1,1,8,
8,8,8,8,8,8,8,8,8,8,8,8,8,8,8,8,8,8,8,8,8,8,8,8,8,8,8,8,1,1,2,2,2,9,10,11,12,59,60,13,13,13,13,13,13,13,59,60,11,12,22,23,2,2,9,18,19,20,21,18,19,20,21,18,19,20,21,32,2,2,2,2,2,2,2,2,2,2,2,2,17,36,2,46,47,48,2,2,2,2,29,2,2,2,2,2,2,2,2,8,
8,8,8,8,8,8,8,8,8,8,8,8,8,8,8,8,8,8,8,8,8,8,8,8,8,8,8,8,1,1,2,2,2,9,10,11,12,67,68,13,13,13,13,13,13,13,67,68,11,12,22,23,2,2,9,10,6,7,9,10,6,7,9,10,6,7,2,2,32,2,2,2,2,2,2,2,2,2,2,2,2,2,2,54,55,56,2,2,2,29,2,2,2,2,2,1,2,2,1,8,
8,8,8,8,8,8,8,8,8,8,8,8,8,8,8,8,8,8,8,8,8,8,8,8,8,8,8,8,1,1,2,2,2,9,10,11,12,75,76,13,13,13,13,13,13,13,75,76,11,12,22,23,2,2,9,10,14,15,9,10,14,15,9,10,14,15,2,2,2,32,2,2,2,2,2,2,2,2,2,2,2,2,2,2,2,2,2,2,29,2,2,2,2,2,2,1,2,2,1,8,
8,8,8,8,8,8,8,8,8,8,8,8,8,8,8,8,8,8,8,8,8,8,8,8,8,8,8,8,1,1,1,1,1,1,1,1,1,1,1,1,1,1,1,1,1,1,1,1,1,1,1,1,1,1,1,1,1,1,1,1,1,1,1,1,1,1,1,1,1,1,1,1,1,1,1,1,1,1,1,1,1,1,1,1,1,1,1,1,1,1,1,1,1,1,1,1,1,1,1,8,
8,8,8,8,8,8,8,8,8,8,8,8,8,8,8,8,8,8,8,8,8,8,8,8,8,8,8,8,8,8,8,8,8,8,8,8,8,8,8,8,8,8,8,8,8,8,8,8,8,8,8,8,8,8,8,8,8,8,8,8,8,8,8,8,8,8,8,8,8,8,8,8,8,8,8,8,8,8,8,8,8,8,8,8,8,8,8,8,8,8,8,8,8,8,8,8,8,8,8,8,
8,8,8,8,8,8,8,8,8,8,8,8,8,8,8,8,8,8,8,8,8,8,8,8,8,8,8,8,8,8,8,8,8,8,8,8,8,8,8,8,8,8,8,8,8,8,8,8,8,8,8,8,8,8,8,8,8,8,8,8,8,8,8,8,8,8,8,8,8,8,8,8,8,8,8,8,8,8,8,8,8,8,8,8,8,8,8,8,8,8,8,8,8,8,8,8,8,8,8,8

